{
  "project_info": {
    "project_number": "849258231766",
    "project_id": "crostrackingexample",
    "storage_bucket": "crostrackingexample.appspot.com"
  },
  "client": [
    {
      "client_info": {
        "mobilesdk_app_id": "1:849258231766:android:1111e5b35e80f69851d677",
        "android_client_info": {
          "package_name": "com.cros.exampletracking"
        }
      },
      "oauth_client": [
        {
          "client_id": "849258231766-q0vc4j9dlvj5us6caiofok8g170uh83q.apps.googleusercontent.com",
          "client_type": 3
        }
      ],
      "api_key": [
        {
          "current_key": "AIzaSyA0kZmglVHRkxru22GhmDxbmRcYwWi0ins"
        }
      ],
      "services": {
        "appinvite_service": {
          "other_platform_oauth_client": [
            {
              "client_id": "849258231766-q0vc4j9dlvj5us6caiofok8g170uh83q.apps.googleusercontent.com",
              "client_type": 3
            }
          ]
        }
      }
    }
  ],
  "configuration_version": "1"
}